{
    "messages": [],
    "warnings": [],
    "message": null,
    "arguments": null,
    "success": true,
    "datas": {
        "fileSizeAggResult": [
            {
                "rangeId": "0-512000",
                "rangeName": "0~500KB",
                "count": "769"
            },
            {
                "rangeId": "512000-1048576",
                "rangeName": "500KB~1MB",
                "count": "111"
            },
            {
                "rangeId": "1048576-",
                "rangeName": "1MB以上",
                "count": "468"
            }
        ],
        "timeTaken": "0分0秒33毫秒",
        "searchResult": {
            "pageNo": 1,
            "pageSize": 10,
            "offset": -1,
            "totalRecord": 1348,
            "totalPage": 135,
            "results": [
                {
                    "id": null,
                    "fileName": "◎<span style=\"color: red\">中国</span>語(top).pptx",
                    "dataSource": "iv-fileserver-public",
                    "filePath": "C:/public_all/430/01.会社案内/旧会社紹介/2013/201312",
                    "fileType": "PowerPoint",
                    "fileExtend": "pptx",
                    "fileContent": null,
                    "fileUrl": "iv-fileserver-public/C:/public_all/430/01.会社案内/旧会社紹介/2013/201312/◎中国語(top).pptx",
                    "fileSize": 238995,
                    "fileMeta": null,
                    "clickCount": null,
                    "createTime": null,
                    "updateTime": "2013-10-30 11:24:45",
                    "createUser": null,
                    "updateUser": null,
                    "operFlag": null,
                    "fileContentOutline": "：<span style=\"color: red\">中国</span>上海市浦东新区峨山路91弄100号陆家嘴软件园2号楼9FURL：http://www.ivision-china.cn■　企业概要　■会社紹介iVisionShanghaiCo.",
                    "termFetchTime": null,
                    "language": null,
                    "searchWord": null,
                    "docScore": "6.554747"
                },
                {
                    "id": null,
                    "fileName": "◎<span style=\"color: red\">中国</span>語(top).ppt",
                    "dataSource": "iv-fileserver-public",
                    "filePath": "C:/public_all/430/01.会社案内/旧会社紹介/2013/201306",
                    "fileType": "PowerPoint",
                    "fileExtend": "ppt",
                    "fileContent": null,
                    "fileUrl": "iv-fileserver-public/C:/public_all/430/01.会社案内/旧会社紹介/2013/201306/◎中国語(top).ppt",
                    "fileSize": 313856,
                    "fileMeta": null,
                    "clickCount": null,
                    "createTime": null,
                    "updateTime": "2013-04-24 16:10:12",
                    "createUser": null,
                    "updateUser": null,
                    "operFlag": null,
                    "fileContentOutline": "：<span style=\"color: red\">中国</span>上海市浦东新区峨山路91弄100号陆家嘴软件园2号楼9FURL：http://www.ivision-china.cn■　企业概要　■会社紹介iVisionShanghaiCo.",
                    "termFetchTime": null,
                    "language": null,
                    "searchWord": null,
                    "docScore": "6.554747"
                },
                {
                    "id": null,
                    "fileName": "◎<span style=\"color: red\">中国</span>語(top).pptx",
                    "dataSource": "iv-fileserver-public",
                    "filePath": "C:/public_all/430/01.会社案内/旧会社紹介/2013/201309",
                    "fileType": "PowerPoint",
                    "fileExtend": "pptx",
                    "fileContent": null,
                    "fileUrl": "iv-fileserver-public/C:/public_all/430/01.会社案内/旧会社紹介/2013/201309/◎中国語(top).pptx",
                    "fileSize": 237728,
                    "fileMeta": null,
                    "clickCount": null,
                    "createTime": null,
                    "updateTime": "2013-07-19 16:15:40",
                    "createUser": null,
                    "updateUser": null,
                    "operFlag": null,
                    "fileContentOutline": "：<span style=\"color: red\">中国</span>上海市浦东新区峨山路91弄100号陆家嘴软件园2号楼9FURL：http://www.ivision-china.cn■　企业概要　■会社紹介iVisionShanghaiCo.",
                    "termFetchTime": null,
                    "language": null,
                    "searchWord": null,
                    "docScore": "6.554747"
                },
                {
                    "id": null,
                    "fileName": "<span style=\"color: red\">中国</span>語(top).ppt",
                    "dataSource": "iv-fileserver-public",
                    "filePath": "C:/public_all/430/01.会社案内/旧会社紹介/2012/201205",
                    "fileType": "PowerPoint",
                    "fileExtend": "ppt",
                    "fileContent": null,
                    "fileUrl": "iv-fileserver-public/C:/public_all/430/01.会社案内/旧会社紹介/2012/201205/中国語(top).ppt",
                    "fileSize": 316416,
                    "fileMeta": null,
                    "clickCount": null,
                    "createTime": null,
                    "updateTime": "2012-02-13 17:20:40",
                    "createUser": null,
                    "updateUser": null,
                    "operFlag": null,
                    "fileContentOutline": "：<span style=\"color: red\">中国</span>上海市浦东新区张扬路560号中融恒瑞国际大厦西塔18FURL：http://www.ivision-china.cn■　企业概要　■会社紹介iVisionShanghaiCo.",
                    "termFetchTime": null,
                    "language": null,
                    "searchWord": null,
                    "docScore": "6.542732"
                },
                {
                    "id": null,
                    "fileName": "◎<span style=\"color: red\">中国</span>語(top).ppt",
                    "dataSource": "iv-fileserver-public",
                    "filePath": "C:/public_all/430/01.会社案内/旧会社紹介/2012/201206",
                    "fileType": "PowerPoint",
                    "fileExtend": "ppt",
                    "fileContent": null,
                    "fileUrl": "iv-fileserver-public/C:/public_all/430/01.会社案内/旧会社紹介/2012/201206/◎中国語(top).ppt",
                    "fileSize": 316928,
                    "fileMeta": null,
                    "clickCount": null,
                    "createTime": null,
                    "updateTime": "2012-06-14 15:39:28",
                    "createUser": null,
                    "updateUser": null,
                    "operFlag": null,
                    "fileContentOutline": "：<span style=\"color: red\">中国</span>上海市浦东新区张扬路560号中融恒瑞国际大厦西塔18FURL：http://www.ivision-china.cn■　企业概要　■会社紹介iVisionShanghaiCo.",
                    "termFetchTime": null,
                    "language": null,
                    "searchWord": null,
                    "docScore": "6.5414324"
                },
                {
                    "id": null,
                    "fileName": "◎<span style=\"color: red\">中国</span>語(top).ppt",
                    "dataSource": "iv-fileserver-public",
                    "filePath": "C:/public_all/430/01.会社案内/旧会社紹介/2012/201212",
                    "fileType": "PowerPoint",
                    "fileExtend": "ppt",
                    "fileContent": null,
                    "fileUrl": "iv-fileserver-public/C:/public_all/430/01.会社案内/旧会社紹介/2012/201212/◎中国語(top).ppt",
                    "fileSize": 314368,
                    "fileMeta": null,
                    "clickCount": null,
                    "createTime": null,
                    "updateTime": "2012-12-13 16:27:18",
                    "createUser": null,
                    "updateUser": null,
                    "operFlag": null,
                    "fileContentOutline": "：<span style=\"color: red\">中国</span>上海市浦东新区峨山路91弄100号陆家嘴软件园2号楼9FURL：http://www.ivision-china.cn■　企业概要　■会社紹介iVisionShanghaiCo.",
                    "termFetchTime": null,
                    "language": null,
                    "searchWord": null,
                    "docScore": "6.5414324"
                },
                {
                    "id": null,
                    "fileName": "◎<span style=\"color: red\">中国</span>語(top).ppt",
                    "dataSource": "iv-fileserver-public",
                    "filePath": "C:/public_all/430/01.会社案内/旧会社紹介/2013/201303",
                    "fileType": "PowerPoint",
                    "fileExtend": "ppt",
                    "fileContent": null,
                    "fileUrl": "iv-fileserver-public/C:/public_all/430/01.会社案内/旧会社紹介/2013/201303/◎中国語(top).ppt",
                    "fileSize": 314368,
                    "fileMeta": null,
                    "clickCount": null,
                    "createTime": null,
                    "updateTime": "2012-12-13 16:27:18",
                    "createUser": null,
                    "updateUser": null,
                    "operFlag": null,
                    "fileContentOutline": "：<span style=\"color: red\">中国</span>上海市浦东新区峨山路91弄100号陆家嘴软件园2号楼9FURL：http://www.ivision-china.cn■　企业概要　■会社紹介iVisionShanghaiCo.",
                    "termFetchTime": null,
                    "language": null,
                    "searchWord": null,
                    "docScore": "6.5414324"
                },
                {
                    "id": null,
                    "fileName": "◎<span style=\"color: red\">中国</span>語(top).ppt",
                    "dataSource": "iv-fileserver-public",
                    "filePath": "C:/public_all/430/01.会社案内/旧会社紹介/2012/201207",
                    "fileType": "PowerPoint",
                    "fileExtend": "ppt",
                    "fileContent": null,
                    "fileUrl": "iv-fileserver-public/C:/public_all/430/01.会社案内/旧会社紹介/2012/201207/◎中国語(top).ppt",
                    "fileSize": 318976,
                    "fileMeta": null,
                    "clickCount": null,
                    "createTime": null,
                    "updateTime": "2012-07-16 11:38:02",
                    "createUser": null,
                    "updateUser": null,
                    "operFlag": null,
                    "fileContentOutline": "：<span style=\"color: red\">中国</span>上海市浦东新区张扬路560号中融恒瑞国际大厦西塔18FURL：http://www.ivision-china.cn■　企业概要　■会社紹介iVisionShanghaiCo.",
                    "termFetchTime": null,
                    "language": null,
                    "searchWord": null,
                    "docScore": "6.538328"
                },
                {
                    "id": null,
                    "fileName": "◎<span style=\"color: red\">中国</span>語(top).pptx",
                    "dataSource": "iv-fileserver-public",
                    "filePath": "C:/public_all/430/01.会社案内/旧会社紹介/2013/201307",
                    "fileType": "PowerPoint",
                    "fileExtend": "pptx",
                    "fileContent": null,
                    "fileUrl": "iv-fileserver-public/C:/public_all/430/01.会社案内/旧会社紹介/2013/201307/◎中国語(top).pptx",
                    "fileSize": 237728,
                    "fileMeta": null,
                    "clickCount": null,
                    "createTime": null,
                    "updateTime": "2013-07-19 16:15:40",
                    "createUser": null,
                    "updateUser": null,
                    "operFlag": null,
                    "fileContentOutline": "：<span style=\"color: red\">中国</span>上海市浦东新区峨山路91弄100号陆家嘴软件园2号楼9FURL：http://www.ivision-china.cn■　企业概要　■会社紹介iVisionShanghaiCo.",
                    "termFetchTime": null,
                    "language": null,
                    "searchWord": null,
                    "docScore": "6.538328"
                },
                {
                    "id": null,
                    "fileName": "◎<span style=\"color: red\">中国</span>語(top).pptx",
                    "dataSource": "iv-fileserver-public",
                    "filePath": "C:/public_all/430/01.会社案内/旧会社紹介/2013/201310",
                    "fileType": "PowerPoint",
                    "fileExtend": "pptx",
                    "fileContent": null,
                    "fileUrl": "iv-fileserver-public/C:/public_all/430/01.会社案内/旧会社紹介/2013/201310/◎中国語(top).pptx",
                    "fileSize": 237728,
                    "fileMeta": null,
                    "clickCount": null,
                    "createTime": null,
                    "updateTime": "2013-07-19 16:15:40",
                    "createUser": null,
                    "updateUser": null,
                    "operFlag": null,
                    "fileContentOutline": "：<span style=\"color: red\">中国</span>上海市浦东新区峨山路91弄100号陆家嘴软件园2号楼9FURL：http://www.ivision-china.cn■　企业概要　■会社紹介iVisionShanghaiCo.",
                    "termFetchTime": null,
                    "language": null,
                    "searchWord": null,
                    "docScore": "6.538328"
                }
            ],
            "params": {
                "language": "cn",
                "searchWord": "中国",
                "fuzzySearchDiv": "1",
                "searchTarget": [],
                "fileNameBoost": "1",
                "fileContentBoost": "1",
                "fileExtent": [],
                "fileSizeFrom": "",
                "fileSizeTo": "",
                "sortItem": "default",
                "fileSize": [],
                "fileUpdateTime": []
            },
            "paging": true
        },
        "fileTypeAggResult": [
            {
                "fileTypeId": "PowerPoint",
                "fileTypeCount": "661"
            },
            {
                "fileTypeId": "Excel",
                "fileTypeCount": "290"
            },
            {
                "fileTypeId": "Word",
                "fileTypeCount": "201"
            },
            {
                "fileTypeId": "Pdf",
                "fileTypeCount": "160"
            },
            {
                "fileTypeId": "Text",
                "fileTypeCount": "19"
            },
            {
                "fileTypeId": "Others",
                "fileTypeCount": "17"
            }
        ],
        "fileUpdateTimeAggResult": [
            {
                "periodId": "365",
                "periodName": "过去一年",
                "count": "86"
            },
            {
                "periodId": "30",
                "periodName": "过去一月",
                "count": "0"
            },
            {
                "periodId": "7",
                "periodName": "过去一周",
                "count": "0"
            },
            {
                "periodId": "1",
                "periodName": "过去一天",
                "count": "0"
            }
        ]
    }
}